<?xml version="1.0" encoding="UTF-8"?>
<svg width="19px" height="12px" viewBox="0 0 19 12" version="1.1" xmlns="http://www.w3.org/2000/svg" xmlns:xlink="http://www.w3.org/1999/xlink">
    <!-- Generator: Sketch 50.2 (55047) - http://www.bohemiancoding.com/sketch -->
    <title>Shape</title>
    <desc>Created with Sketch.</desc>
    <defs></defs>
    <g id="Index-1" stroke="none" stroke-width="1" fill="none" fill-rule="evenodd">
        <g id="index-1" transform="translate(-262.000000, -600.000000)" fill="#FFFFFF" fill-rule="nonzero">
            <g id="banner" transform="translate(141.000000, 188.000000)">
                <g id="banner-content" transform="translate(0.000000, 89.000000)">
                    <g id="button" transform="translate(2.025370, 302.000000)">
                        <path d="M137.511548,26.3171353 L131.896035,21.5264076 C131.638487,21.3065639 131.249086,21.3353626 131.027275,21.589278 C130.804643,21.8435991 130.832985,22.2277172 131.090532,22.447561 L135.394897,26.1191948 L120.05626,26.1191948 C119.71615,26.1191948 119.440118,26.391363 119.440118,26.7276184 C119.440118,27.0638739 119.71615,27.336042 120.05626,27.336042 L135.549753,27.336042 L133.096278,29.4983796 L131.179667,30.9951018 C130.913083,31.2035883 130.867489,31.5860839 131.07862,31.8497341 C131.200205,32.0014344 131.380529,32.0805295 131.562497,32.0805295 C131.696405,32.0805295 131.831134,32.0379399 131.944504,31.94911 L133.888636,30.4288622 L137.518942,27.2309876 C137.651207,27.1145758 137.726376,26.9474622 137.725144,26.7722361 C137.723501,26.5974158 137.646278,26.4315189 137.511548,26.3171353 Z" id="Shape"></path>
                    </g>
                </g>
            </g>
        </g>
    </g>
</svg>