<?xml version="1.0" encoding="UTF-8"?>
<svg width="20px" height="22px" viewBox="0 0 20 22" version="1.1" xmlns="http://www.w3.org/2000/svg" xmlns:xlink="http://www.w3.org/1999/xlink">
    <!-- Generator: Sketch 50.2 (55047) - http://www.bohemiancoding.com/sketch -->
    <title>noun_Calendar_12096</title>
    <desc>Created with Sketch.</desc>
    <defs></defs>
    <g id="Free-Demo" stroke="none" stroke-width="1" fill="none" fill-rule="evenodd">
        <g transform="translate(-675.000000, -890.000000)" fill="#B2AFAF" fill-rule="nonzero" id="enquiry-form">
            <g transform="translate(241.000000, 562.000000)">
                <g id="noun_Calendar_12096" transform="translate(434.000000, 328.000000)">
                    <path d="M19.7142857,9.34285714 C19.8857143,9.34285714 20,9.22857143 20,9.05714286 L20,3.91428571 C20,2.85714286 19.1428571,2 18.0857143,2 L16.8571429,2 L16.8571429,0.857142857 C16.8571429,0.371428571 16.4857143,0 16,0 L14.2857143,0 C13.8,0 13.4285714,0.371428571 13.4285714,0.857142857 L13.4285714,2 L7.14285714,2 L7.14285714,0.857142857 C7.14285714,0.371428571 6.77142857,0 6.28571429,0 L4.57142857,0 C4.08571429,0 3.71428571,0.371428571 3.71428571,0.857142857 L3.71428571,2.02857143 C3.68571429,2.02857143 3.65714286,2 3.62857143,2 L1.91428571,2 C0.857142857,2 0,2.85714286 0,3.91428571 L0,19.8 C0,20.8571429 0.857142857,21.7142857 1.91428571,21.7142857 L18.0857143,21.7142857 C19.1428571,21.7142857 20,20.8571429 20,19.8 L20,11.2857143 C20,11.1142857 19.8857143,11 19.7142857,11 C19.5428571,11 19.4285714,11.1142857 19.4285714,11.2857143 L19.4285714,19.8 C19.4285714,20.5428571 18.8285714,21.1428571 18.0857143,21.1428571 L1.91428571,21.1428571 C1.17142857,21.1428571 0.571428571,20.5428571 0.571428571,19.8 L0.571428571,3.91428571 C0.571428571,3.17142857 1.17142857,2.57142857 1.91428571,2.57142857 L3.62857143,2.57142857 C3.65714286,2.57142857 3.68571429,2.57142857 3.71428571,2.54285714 L3.71428571,3.71428571 C3.71428571,4.2 4.08571429,4.57142857 4.57142857,4.57142857 L6.28571429,4.57142857 C6.77142857,4.57142857 7.14285714,4.2 7.14285714,3.71428571 L7.14285714,2.57142857 L13.4285714,2.57142857 L13.4285714,3.71428571 C13.4285714,4.2 13.8,4.57142857 14.2857143,4.57142857 L16,4.57142857 C16.4857143,4.57142857 16.8571429,4.2 16.8571429,3.71428571 L16.8571429,2.57142857 L18.0857143,2.57142857 C18.8285714,2.57142857 19.4285714,3.17142857 19.4285714,3.91428571 L19.4285714,7.42857143 L1.71428571,7.42857143 C1.54285714,7.42857143 1.42857143,7.54285714 1.42857143,7.71428571 C1.42857143,7.88571429 1.54285714,8 1.71428571,8 L19.4285714,8 L19.4285714,9.05714286 C19.4285714,9.2 19.5428571,9.34285714 19.7142857,9.34285714 Z M6.57142857,3.71428571 C6.57142857,3.88571429 6.45714286,4 6.28571429,4 L4.57142857,4 C4.4,4 4.28571429,3.88571429 4.28571429,3.71428571 L4.28571429,0.857142857 C4.28571429,0.685714286 4.4,0.571428571 4.57142857,0.571428571 L6.28571429,0.571428571 C6.45714286,0.571428571 6.57142857,0.685714286 6.57142857,0.857142857 L6.57142857,3.71428571 Z M16,4 L14.2857143,4 C14.1142857,4 14,3.88571429 14,3.71428571 L14,0.857142857 C14,0.685714286 14.1142857,0.571428571 14.2857143,0.571428571 L16,0.571428571 C16.1714286,0.571428571 16.2857143,0.685714286 16.2857143,0.857142857 L16.2857143,2.28571429 C16.2857143,2.28571429 16.2857143,2.28571429 16.2857143,2.28571429 C16.2857143,2.28571429 16.2857143,2.28571429 16.2857143,2.28571429 L16.2857143,3.71428571 C16.2857143,3.88571429 16.1714286,4 16,4 Z" id="Shape"></path>
                    <path d="M4.42857143,10.2857143 C3.57142857,10.2857143 2.85714286,11 2.85714286,11.8571429 C2.85714286,12.7142857 3.57142857,13.4285714 4.42857143,13.4285714 C5.28571429,13.4285714 6,12.7142857 6,11.8571429 C6,11 5.28571429,10.2857143 4.42857143,10.2857143 Z M4.42857143,12.8571429 C3.88571429,12.8571429 3.42857143,12.4 3.42857143,11.8571429 C3.42857143,11.3142857 3.88571429,10.8571429 4.42857143,10.8571429 C4.97142857,10.8571429 5.42857143,11.3142857 5.42857143,11.8571429 C5.42857143,12.4 4.97142857,12.8571429 4.42857143,12.8571429 Z" id="Shape"></path>
                    <path d="M9.85714286,10.2857143 C9,10.2857143 8.28571429,11 8.28571429,11.8571429 C8.28571429,12.7142857 9,13.4285714 9.85714286,13.4285714 C10.7142857,13.4285714 11.4285714,12.7142857 11.4285714,11.8571429 C11.4285714,11 10.7142857,10.2857143 9.85714286,10.2857143 Z M9.85714286,12.8571429 C9.31428571,12.8571429 8.85714286,12.4 8.85714286,11.8571429 C8.85714286,11.3142857 9.31428571,10.8571429 9.85714286,10.8571429 C10.4,10.8571429 10.8571429,11.3142857 10.8571429,11.8571429 C10.8571429,12.4 10.4,12.8571429 9.85714286,12.8571429 Z" id="Shape"></path>
                    <path d="M15.2857143,10.2857143 C14.4285714,10.2857143 13.7142857,11 13.7142857,11.8571429 C13.7142857,12.7142857 14.4285714,13.4285714 15.2857143,13.4285714 C16.1428571,13.4285714 16.8571429,12.7142857 16.8571429,11.8571429 C16.8571429,11 16.1428571,10.2857143 15.2857143,10.2857143 Z M15.2857143,12.8571429 C14.7428571,12.8571429 14.2857143,12.4 14.2857143,11.8571429 C14.2857143,11.3142857 14.7428571,10.8571429 15.2857143,10.8571429 C15.8285714,10.8571429 16.2857143,11.3142857 16.2857143,11.8571429 C16.2857143,12.4 15.8285714,12.8571429 15.2857143,12.8571429 Z" id="Shape"></path>
                    <path d="M4.42857143,15.4285714 C3.57142857,15.4285714 2.85714286,16.1428571 2.85714286,17 C2.85714286,17.8571429 3.57142857,18.5714286 4.42857143,18.5714286 C5.28571429,18.5714286 6,17.8571429 6,17 C6,16.1428571 5.28571429,15.4285714 4.42857143,15.4285714 Z M4.42857143,18 C3.88571429,18 3.42857143,17.5428571 3.42857143,17 C3.42857143,16.4571429 3.88571429,16 4.42857143,16 C4.97142857,16 5.42857143,16.4571429 5.42857143,17 C5.42857143,17.5428571 4.97142857,18 4.42857143,18 Z" id="Shape"></path>
                    <path d="M9.85714286,15.4285714 C9,15.4285714 8.28571429,16.1428571 8.28571429,17 C8.28571429,17.8571429 9,18.5714286 9.85714286,18.5714286 C10.7142857,18.5714286 11.4285714,17.8571429 11.4285714,17 C11.4285714,16.1428571 10.7142857,15.4285714 9.85714286,15.4285714 Z M9.85714286,18 C9.31428571,18 8.85714286,17.5428571 8.85714286,17 C8.85714286,16.4571429 9.31428571,16 9.85714286,16 C10.4,16 10.8571429,16.4571429 10.8571429,17 C10.8571429,17.5428571 10.4,18 9.85714286,18 Z" id="Shape"></path>
                    <path d="M15.2857143,15.4285714 C14.4285714,15.4285714 13.7142857,16.1428571 13.7142857,17 C13.7142857,17.8571429 14.4285714,18.5714286 15.2857143,18.5714286 C16.1428571,18.5714286 16.8571429,17.8571429 16.8571429,17 C16.8571429,16.1428571 16.1428571,15.4285714 15.2857143,15.4285714 Z M15.2857143,18 C14.7428571,18 14.2857143,17.5428571 14.2857143,17 C14.2857143,16.4571429 14.7428571,16 15.2857143,16 C15.8285714,16 16.2857143,16.4571429 16.2857143,17 C16.2857143,17.5428571 15.8285714,18 15.2857143,18 Z" id="Shape"></path>
                </g>
            </g>
        </g>
    </g>
</svg>