<?xml version="1.0" encoding="UTF-8"?>
<svg width="12px" height="7px" viewBox="0 0 12 7" version="1.1" xmlns="http://www.w3.org/2000/svg" xmlns:xlink="http://www.w3.org/1999/xlink">
    <!-- Generator: Sketch 50.2 (55047) - http://www.bohemiancoding.com/sketch -->
    <title>Shape</title>
    <desc>Created with Sketch.</desc>
    <defs></defs>
    <g id="Free-Demo" stroke="none" stroke-width="1" fill="none" fill-rule="evenodd">
        <g transform="translate(-680.000000, -971.000000)" fill="#666666" id="enquiry-form">
            <g transform="translate(241.000000, 562.000000)">
                <polygon id="Shape" points="439 409.947368 439.96 409 445 414.04 450.04 409 451 409.947368 445 415.947368"></polygon>
            </g>
        </g>
    </g>
</svg>