<?xml version="1.0" encoding="UTF-8"?>
<svg width="20px" height="20px" viewBox="0 0 20 20" version="1.1" xmlns="http://www.w3.org/2000/svg" xmlns:xlink="http://www.w3.org/1999/xlink">
    <!-- Generator: Sketch 50.2 (55047) - http://www.bohemiancoding.com/sketch -->
    <title>Shape</title>
    <desc>Created with Sketch.</desc>
    <defs></defs>
    <g id="Warranty-registration" stroke="none" stroke-width="1" fill="none" fill-rule="evenodd">
        <g transform="translate(-292.000000, -1781.000000)" fill="#3F95B5" fill-rule="nonzero" id="download-and-enquiry">
            <g transform="translate(291.000000, 1645.000000)">
                <g id="download">
                    <g id="noun_Phone_2663543" transform="translate(1.000000, 136.000000)">
                        <path d="M14.9606153,19.9943729 C14.3086922,19.9943729 13.6502597,19.9117027 12.9924781,19.7463622 C8.23470924,18.5486204 1.44566137,11.7592471 0.247919572,7.00147817 C-0.235733814,5.0818365 -0.00887886848,3.15047788 0.903422803,1.41765794 C1.30050023,0.663210817 2.00970662,0.157425262 2.84942775,0.0298396891 C3.68101208,-0.094491092 4.50250674,0.173047981 5.09942479,0.769966031 L7.04542974,2.71629647 C7.81191937,3.48246067 8.03389222,4.65416461 7.59775797,5.63123549 C7.36927572,6.14418147 7.07797705,6.57966475 6.731348,6.92531742 C6.49375248,7.1635639 6.44623336,7.55673563 6.59041804,8.0944176 C7.11443007,10.0511632 9.94279319,12.8795262 11.8998642,13.4041892 C12.4381971,13.5480484 12.8310434,13.5011803 13.0686389,13.2629338 C13.4155934,12.9159793 13.8514022,12.6243552 14.3636972,12.3965238 C15.3404426,11.9590877 16.5114956,12.1823624 17.2783107,12.9485266 L19.2243157,14.894857 C19.8212337,15.4917751 20.0907257,16.3119678 19.964442,17.1451795 C19.837182,17.9842498 19.331071,18.6937816 18.5766238,19.090859 C17.4371417,19.6910317 16.2120601,19.9943729 14.9606153,19.9943729 Z M3.24715615,1.33303489 C3.18173604,1.33303489 3.11566495,1.33824246 3.04926838,1.34800664 C2.63298802,1.41114849 2.2808259,1.66306484 2.08293813,2.038661 C1.31547204,3.49678145 1.1328815,5.05710051 1.54069956,6.67600482 C2.62550211,10.9846206 9.00933568,17.3691051 13.3179514,18.4535822 C14.9371811,18.8617257 16.4971748,18.6781588 17.9556207,17.9113436 C18.3315423,17.7134558 18.5831332,17.3612937 18.646275,16.9446879 C18.7084404,16.5352424 18.5756473,16.1316555 18.2817449,15.8374277 L16.33574,13.8910972 C15.9572145,13.5135481 15.3834051,13.4022363 14.9062611,13.613794 C14.5433584,13.7758797 14.2422955,13.9744184 14.0112095,14.2055044 C13.5994858,14.6169027 12.8395056,15.0354614 11.5545369,14.6917616 C9.11218519,14.0375602 5.95704691,10.881771 5.30252007,8.43941923 C4.95849476,7.15510154 5.37737894,6.3941449 5.7891027,5.98274663 C6.01953779,5.75231154 6.21840202,5.45157419 6.38016227,5.08834595 C6.59302179,4.61185298 6.48138449,4.03771807 6.10285902,3.65886712 L4.15685407,1.71253675 C3.91047078,1.46647894 3.58695028,1.33303489 3.24715615,1.33303489 Z" id="Shape"></path>
                    </g>
                </g>
            </g>
        </g>
    </g>
</svg>