<?xml version="1.0" encoding="UTF-8"?>
<svg width="20px" height="20px" viewBox="0 0 20 20" version="1.1" xmlns="http://www.w3.org/2000/svg" xmlns:xlink="http://www.w3.org/1999/xlink">
    <!-- Generator: Sketch 50.2 (55047) - http://www.bohemiancoding.com/sketch -->
    <title>Group</title>
    <desc>Created with Sketch.</desc>
    <defs></defs>
    <g id="blog-detail-page" stroke="none" stroke-width="1" fill="none" fill-rule="evenodd">
        <g id="blogs-details" transform="translate(-316.000000, -199.000000)" fill="#666666" fill-rule="nonzero" stroke="#979797" stroke-width="0.3">
            <g id="banner-content" transform="translate(142.000000, 134.000000)">
                <g id="comment-view" transform="translate(0.000000, 65.000000)">
                    <g id="Group-Copy-4" transform="translate(175.000000, 0.000000)">
                        <g id="noun_people_601001">
                            <g id="Group" transform="translate(0.000000, 0.637820)">
                                <path d="M9,0.33093 C6.64832818,0.33093 4.72944079,2.24981763 4.72944079,4.60148921 C4.72944079,6.95316079 6.64832818,8.87204842 9,8.87204842 C11.3516718,8.87204842 13.2705592,6.95316079 13.2705592,4.60148921 C13.2705592,2.24981763 11.3516718,0.33093 9,0.33093 Z M9,0.819416842 C11.0956739,0.819416842 12.7820724,2.50581553 12.7820724,4.60148921 C12.7820724,6.69716289 11.0956739,8.38356158 9,8.38356158 C6.90432608,8.38356158 5.21792763,6.69716289 5.21792763,4.60148921 C5.21792763,2.50581553 6.90432608,0.819416842 9,0.819416842 Z M9,10.7593839 C4.05646034,10.7593839 0,14.0194918 0,18.1014892 C1.3077925e-05,18.2322881 0.10604324,18.3383182 0.236842105,18.3383313 L17.7631579,18.3383313 C17.8939568,18.3383182 17.9999869,18.2322881 18,18.1014892 C18,14.0194918 13.9435397,10.7593839 9,10.7593839 Z M9,11.2330682 C13.634109,11.2330682 17.3384533,14.2084445 17.4967105,17.8646471 L0.503289474,17.8646471 C0.661546658,14.2084445 4.365891,11.2330682 9,11.2330682 Z" id="Shape"></path>
                            </g>
                        </g>
                    </g>
                </g>
            </g>
        </g>
    </g>
</svg>